%YAML 1.1
%TAG !u! tag:unity3d.com,2011:
--- !u!1045 &1
EditorBuildSettings:
  m_ObjectHideFlags: 0
  serializedVersion: 2
  m_Scenes:
  - enabled: 0
    path: 
    guid: 00000000000000000000000000000000
  - enabled: 1
    path: Assets/Intro.unity
    guid: e2b085be46139ce4a83728bb843911ed
  - enabled: 1
    path: Assets/Main.unity
    guid: 548efbe8196c7bb41a94d25d70cf82e6
  - enabled: 1
    path: Assets/Last.unity
    guid: 0784d85bcb76f76498fbb4552b62bed1
  m_configObjects: {}
